2019-03-18 09-48-01 INFO Tenant:Logistics Plus Inc.	User:Asim Riaz (asim.riaz)	Page:Dashboard	 IP:::1
2019-03-18 09-48-54 INFO Tenant:Logistics Plus Inc.	User:Asim Riaz (asim.riaz)	Page:Project44Service Mapping	 IP:::1
2019-03-18 09-54-52 INFO Tenant:Logistics Plus Inc.	User:Asim Riaz (asim.riaz)	Page:Estimate Rate	 IP:::1
2019-03-18 09-57-58 INFO Tenant:Logistics Plus Inc.	User:Asim Riaz (asim.riaz)	Page:Dashboard	 IP:::1
2019-03-18 09-58-32 INFO Tenant:Logistics Plus Inc.	User:Asim Riaz (asim.riaz)	Page:Service	 IP:::1
2019-03-18 09-59-10 INFO Tenant:Logistics Plus Inc.	User:Asim Riaz (asim.riaz)	Page:User Guide	 IP:::1
2019-03-18 09-59-25 INFO Tenant:Logistics Plus Inc.	User:Asim Riaz (asim.riaz)	Page:Dashboard	 IP:::1
2019-03-18 09-59-46 INFO Tenant:Logistics Plus Inc.	User:Asim Riaz (asim.riaz)	Page:Audit Log	 IP:::1
2019-03-18 10-00-03 INFO Tenant:Logistics Plus Inc.	User:Asim Riaz (asim.riaz)	Page:Audit Log	 IP:::1
2019-03-18 10-00-08 INFO Tenant:Logistics Plus Inc.	User:Asim Riaz (asim.riaz)	Page:Developer Access Request	 IP:::1
