﻿================================
Updates required when publishing
================================
web.config			Updated location for RateAndScheduleProfilesControl
Files Folder		NONE
Images Folder		NONE
Css					NONE
Database			Added changeScripts
Report Templates	NONE
Misc				NONE
Javascript			NONE

================================
Publish Notes:
================================

